{
  "page": 1,
  "total_results": 3110,
  "total_pages": 156,
  "results": [
    {
      "vote_count": 10507,
      "id": 11,
      "video": false,
      "vote_average": 8.2,
      "title": "Star Wars",
      "popularity": 43.883,
      "poster_path": "/btTdmkgIvOi0FFip1sPuZI2oQG6.jpg",
      "original_language": "en",
      "original_title": "Star Wars",
      "genre_ids": [
        12,
        28,
        878
      ],
      "backdrop_path": "/4iJfYYoQzZcONB9hNzg0J0wWyPH.jpg",
      "adult": false,
      "overview": "Princess Leia is captured and held hostage by the evil Imperial forces in their effort to take over the galactic Empire. Venturesome Luke Skywalker and dashing captain Han Solo team together with the loveable robot duo R2-D2 and C-3PO to rescue the beautiful princess and restore peace and justice in the Empire.",
      "release_date": "1977-05-25"
    },
    {
      "vote_count": 1801,
      "id": 840,
      "video": false,
      "vote_average": 7.3,
      "title": "Close Encounters of the Third Kind",
      "popularity": 20.788,
      "poster_path": "/3Av8ZPiMrxFq9XiOjZl0tkoq9Oo.jpg",
      "original_language": "en",
      "original_title": "Close Encounters of the Third Kind",
      "genre_ids": [
        878,
        18
      ],
      "backdrop_path": "/ppixBaZwLr6dJF6mlWZoz2ALupR.jpg",
      "adult": false,
      "overview": "After an encounter with UFOs, a line worker feels undeniably drawn to an isolated area in the wilderness where something spectacular is about to happen.",
      "release_date": "1977-11-16"
    },
    {
      "vote_count": 3324,
      "id": 621,
      "video": false,
      "vote_average": 7.4,
      "title": "Grease",
      "popularity": 20.214,
      "poster_path": "/iMHdFTrCYhue74sBnXkdO39AJ3R.jpg",
      "original_language": "en",
      "original_title": "Grease",
      "genre_ids": [
        10749
      ],
      "backdrop_path": "/93wqWj6izOulKuONZ7rG7WxEjEe.jpg",
      "adult": false,
      "overview": "Australian good girl Sandy and greaser Danny fell in love over the summer. But when they unexpectedly discover they're now in the same high school, will they be able to rekindle their romance despite their eccentric friends?",
      "release_date": "1978-07-07"
    },
    {
      "vote_count": 2736,
      "id": 762,
      "video": false,
      "vote_average": 7.8,
      "title": "Monty Python and the Holy Grail",
      "popularity": 18.99,
      "poster_path": "/8AVb7tyxZRsbKJNOTJHQZl7JYWO.jpg",
      "original_language": "en",
      "original_title": "Monty Python and the Holy Grail",
      "genre_ids": [
        12,
        35,
        14
      ],
      "backdrop_path": "/6fqmcCVci3cSBCgJw8NGXE4ST8G.jpg",
      "adult": false,
      "overview": "King Arthur, accompanied by his squire, recruits his Knights of the Round Table, including Sir Bedevere the Wise, Sir Lancelot the Brave, Sir Robin the Not-Quite-So-Brave-As-Sir-Lancelot and Sir Galahad the Pure. On the way, Arthur battles the Black Knight who, despite having had all his limbs chopped off, insists he can still fight. They reach Camelot, but Arthur decides not  to enter, as \"it is a silly place\".",
      "release_date": "1975-05-25"
    },
    {
      "vote_count": 5943,
      "id": 185,
      "video": false,
      "vote_average": 8.2,
      "title": "A Clockwork Orange",
      "popularity": 18.891,
      "poster_path": "/4sHeTAp65WrSSuc05nRBKddhBxO.jpg",
      "original_language": "en",
      "original_title": "A Clockwork Orange",
      "genre_ids": [
        878,
        18
      ],
      "backdrop_path": "/unMc1jEyqCnzba976GviSFKGagt.jpg",
      "adult": false,
      "overview": "Demonic gang-leader Alex goes on the spree of rape, mugging and murder with his pack of \"droogs\". But he's a boy who also likes Beethoven's Ninth and a bit of \"the old in-out, in-out\". He later finds himself at the mercy of the state and its brainwashing experiment designed to take violence off the streets.",
      "release_date": "1971-12-18"
    },
    {
      "vote_count": 2106,
      "id": 948,
      "video": false,
      "vote_average": 7.5,
      "title": "Halloween",
      "popularity": 15.917,
      "poster_path": "/vjoOFOTBJcJvA1weJejlZ92LZD4.jpg",
      "original_language": "en",
      "original_title": "Halloween",
      "genre_ids": [
        27,
        53
      ],
      "backdrop_path": "/6Io0gvfEVpMQsB46yXOKCpSJOoJ.jpg",
      "adult": false,
      "overview": "Fifteen years after murdering his sister on Halloween Night 1963, Michael Myers escapes from a mental hospital and returns to the small town of Haddonfield, Illinois to kill again.",
      "release_date": "1978-10-24"
    },
    {
      "vote_count": 4405,
      "id": 578,
      "video": false,
      "vote_average": 7.6,
      "title": "Jaws",
      "popularity": 14.607,
      "poster_path": "/l1yltvzILaZcx2jYvc5sEMkM7Eh.jpg",
      "original_language": "en",
      "original_title": "Jaws",
      "genre_ids": [
        27,
        53,
        12
      ],
      "backdrop_path": "/uTVuKo6OTGiead1ncsfH2klqYHC.jpg",
      "adult": false,
      "overview": "An insatiable great white shark terrorizes the townspeople of Amity Island, The police chief, an oceanographer and a grizzled shark hunter seek to destroy the bloodthirsty beast.",
      "release_date": "1975-06-18"
    },
    {
      "vote_count": 1662,
      "id": 1924,
      "video": false,
      "vote_average": 7,
      "title": "Superman",
      "popularity": 12.933,
      "poster_path": "/n2DOECThGG7h7m5AjLi2Nuh23u1.jpg",
      "original_language": "en",
      "original_title": "Superman",
      "genre_ids": [
        28,
        12,
        878
      ],
      "backdrop_path": "/nS0rEXPbkHI449SF6R4WUQvTVxE.jpg",
      "adult": false,
      "overview": "Mild-mannered Clark Kent works as a reporter at the Daily Planet alongside his crush, Lois Lane. Clark must summon his superhero alter-ego when the nefarious Lex Luthor launches a plan to take over the world.",
      "release_date": "1978-12-13"
    },
    {
      "vote_count": 1250,
      "id": 36685,
      "video": false,
      "vote_average": 7.5,
      "title": "The Rocky Horror Picture Show",
      "popularity": 11.144,
      "poster_path": "/v2NC7o8f7AZvQbOAwrfRbe5Z106.jpg",
      "original_language": "en",
      "original_title": "The Rocky Horror Picture Show",
      "genre_ids": [
        35,
        10402,
        878,
        14,
        27
      ],
      "backdrop_path": "/6Fp3am76rkv3AqevktmTMiupdnz.jpg",
      "adult": false,
      "overview": "Sweethearts Brad and Janet, stuck with a flat tire during a storm, discover the eerie mansion of Dr. Frank-N-Furter, a transvestite scientist. As their innocence is lost, Brad and Janet meet a houseful of wild characters, including a rocking biker and a creepy butler. Through elaborate dances and rock songs, Frank-N-Furter unveils his latest creation: a muscular man named 'Rocky'.",
      "release_date": "1975-08-14"
    },
    {
      "vote_count": 4,
      "id": 26550,
      "video": false,
      "vote_average": 6.4,
      "title": "Little Lips",
      "popularity": 10.877,
      "poster_path": "/dtNl5zlgC1zHXdFz9YWYeE6Y3Rf.jpg",
      "original_language": "it",
      "original_title": "Piccole labbra",
      "genre_ids": [
        18
      ],
      "backdrop_path": "/aZkV8mKb5GVGCIV73p0jhOgm1Dy.jpg",
      "adult": false,
      "overview": "A writer returns home to his estate after service in World War I. He has developed a very bad case of depression due to a war wound concerning his genitalia. He contemplates suicide, but recovers after becoming interested in his caretaker's 12 year-old war orphan niece, who now lives in the manor.",
      "release_date": "1978-02-08"
    },
    {
      "vote_count": 1122,
      "id": 11319,
      "video": false,
      "vote_average": 6.8,
      "title": "The Rescuers",
      "popularity": 10.409,
      "poster_path": "/49rGpB2x6AFB83SC4IBl9foRIGp.jpg",
      "original_language": "en",
      "original_title": "The Rescuers",
      "genre_ids": [
        14,
        10751,
        16,
        12
      ],
      "backdrop_path": "/8kVDTCCrcN2twIJZpkTNfG3df85.jpg",
      "adult": false,
      "overview": "What can two little mice possibly do to save an orphan girl who's fallen into evil hands? With a little cooperation and faith in oneself, anything is possible! As members of the mouse-run International Rescue Aid Society, Bernard and Miss Bianca respond to orphan Penny's call for help. The two mice search for clues with the help of an old cat named Rufus.",
      "release_date": "1977-06-22"
    },
    {
      "vote_count": 1566,
      "id": 11778,
      "video": false,
      "vote_average": 8,
      "title": "The Deer Hunter",
      "popularity": 10.319,
      "poster_path": "/slNJESItHPqp1CENEJQUPw8d7WE.jpg",
      "original_language": "en",
      "original_title": "The Deer Hunter",
      "genre_ids": [
        18,
        10752
      ],
      "backdrop_path": "/kzRUFR2FiITeP9LMPe8j2zrC7Xv.jpg",
      "adult": false,
      "overview": "A group of working-class friends decides to enlist in the Army during the Vietnam War and finds it to be hellish chaos -- not the noble venture they imagined. Before they left, Steven married his pregnant girlfriend -- and Michael and Nick were in love with the same woman. But all three are different men upon their return.",
      "release_date": "1978-12-08"
    },
    {
      "vote_count": 743,
      "id": 579,
      "video": false,
      "vote_average": 5.9,
      "title": "Jaws 2",
      "popularity": 9.89,
      "poster_path": "/zzGtimy1mUJYDjFjCmn2dpHREGV.jpg",
      "original_language": "en",
      "original_title": "Jaws 2",
      "genre_ids": [
        27,
        53
      ],
      "backdrop_path": "/pUVaVyWFBRCRSuu6M0rFcyqAwQx.jpg",
      "adult": false,
      "overview": "Police chief Brody must protect the citizens of Amity after a second monstrous shark begins terrorizing the waters.",
      "release_date": "1978-06-16"
    },
    {
      "vote_count": 290,
      "id": 11230,
      "video": false,
      "vote_average": 7.3,
      "title": "Drunken Master",
      "popularity": 9.819,
      "poster_path": "/fWrUTM8jeiU6G6rA4NKwkeigxGa.jpg",
      "original_language": "cn",
      "original_title": "醉拳",
      "genre_ids": [
        28,
        35
      ],
      "backdrop_path": "/quQt0DPCotCjTEhlFXpaM3sESQZ.jpg",
      "adult": false,
      "overview": "A mischievous young man is sent to hone his martial arts skills with an older, alcoholic kung fu master.",
      "release_date": "1978-10-05"
    },
    {
      "vote_count": 110,
      "id": 24402,
      "video": false,
      "vote_average": 5.2,
      "title": "Emmanuelle",
      "popularity": 9.528,
      "poster_path": "/cSZ8MQIoec4w0liHP4x8FJH5BJK.jpg",
      "original_language": "fr",
      "original_title": "Emmanuelle",
      "genre_ids": [
        18,
        10749
      ],
      "backdrop_path": "/gPiurUCO9Aq5BoftzRjNlvbBrPg.jpg",
      "adult": false,
      "overview": "Emmanuelle, a svelte, naive young woman, is en route to Bangkok where she'll join her new husband. He works for the French Embassy and has a lovely home, several dedicated servants, and an expensive car at his disposal. Once Emmanuelle arrives, her husband and a few friends introduce her to a realm of sexual ecstasy she'd never imagined.",
      "release_date": "1974-06-25"
    },
    {
      "vote_count": 1744,
      "id": 703,
      "video": false,
      "vote_average": 7.8,
      "title": "Annie Hall",
      "popularity": 8.594,
      "poster_path": "/bK9bLXwxWuXX5mbq75PZqjvAtfG.jpg",
      "original_language": "en",
      "original_title": "Annie Hall",
      "genre_ids": [
        35,
        18,
        10749
      ],
      "backdrop_path": "/8iNt5LGxpX9XeNWJgjx17xfTT7u.jpg",
      "adult": false,
      "overview": "In the city of New York, comedian Alvy Singer falls in love with the ditsy Annie Hall.",
      "release_date": "1977-04-19"
    },
    {
      "vote_count": 853,
      "id": 923,
      "video": false,
      "vote_average": 7.5,
      "title": "Dawn of the Dead",
      "popularity": 8.509,
      "poster_path": "/8D6WEfNZr6JadQrqJr5OOq1QlV0.jpg",
      "original_language": "en",
      "original_title": "Dawn of the Dead",
      "genre_ids": [
        27
      ],
      "backdrop_path": "/vCD9mRgSY4HuoSowm8JO4tm2mhj.jpg",
      "adult": false,
      "overview": "During an ever-growing epidemic of zombies that have risen from the dead, two Philadelphia SWAT team members, a traffic reporter, and his television-executive girlfriend seek refuge in a secluded shopping mall.",
      "release_date": "1978-09-02"
    },
    {
      "vote_count": 1101,
      "id": 30497,
      "video": false,
      "vote_average": 7.3,
      "title": "The Texas Chain Saw Massacre",
      "popularity": 8.496,
      "poster_path": "/hXF5nuEvUIlMXv4fOCIhA8KWaN2.jpg",
      "original_language": "en",
      "original_title": "The Texas Chain Saw Massacre",
      "genre_ids": [
        27
      ],
      "backdrop_path": "/sOw7TZzt3vRQXXCrwdspSHwCJDR.jpg",
      "adult": false,
      "overview": "Five friends visiting their grandfather's house in the country are hunted and terrorized by a chain-saw wielding killer and his family of grave-robbing cannibals.",
      "release_date": "1974-10-01"
    },
    {
      "vote_count": 175,
      "id": 15417,
      "video": false,
      "vote_average": 6.2,
      "title": "Every Which Way But Loose",
      "popularity": 8.434,
      "poster_path": "/waGLjW4eC8zww90iTZKX7vFm2DM.jpg",
      "original_language": "en",
      "original_title": "Every Which Way But Loose",
      "genre_ids": [
        28,
        35,
        12,
        10749,
        18
      ],
      "backdrop_path": "/4YdEQTF7wZyl2kTKsRc567Lp3q3.jpg",
      "adult": false,
      "overview": "Philo Beddoe is your regular, easygoing, truck-driving guy. He's also the best bar-room brawler west of the Rockies. And he lives with a 165-pound orangutan named Clyde. Like other guys, Philo finally falls in love - with a flighty singer who leads him on a screwball chase across the American Southwest. Nothing's in the way except a motorcycle gang, and legendary brawler Tank Murdock.",
      "release_date": "1978-12-19"
    },
    {
      "vote_count": 682,
      "id": 8469,
      "video": false,
      "vote_average": 7.1,
      "title": "Animal House",
      "popularity": 8.378,
      "poster_path": "/AuJkgAh7zAGsm7Oo3CGyDtYvzg0.jpg",
      "original_language": "en",
      "original_title": "Animal House",
      "genre_ids": [
        35
      ],
      "backdrop_path": "/Qgr34pvsP2b395CKn0YQJjba9n.jpg",
      "adult": false,
      "overview": "At a 1962 College, Dean Vernon Wormer is determined to expel the entire Delta Tau Chi Fraternity, but those troublemakers have other plans for him.",
      "release_date": "1978-07-27"
    }
  ]
}